 {

    "detailsData": {

        "details": [{
            "id": 1,
            "desc": "Duis autem vel eum iriure dolor in hendrerit in vulputate velit esse molestie consequat, vel illum dolore eu feugiat nulla facilisis at vero eros et accumsan et iusto odio dignissim qui blandit praesent luptatum zzril delenit augue duis dolore te feugait nulla facilisi. Lorem ipsum dolor sit amet, consectetuer adipiscing elit, sed diam nonummy nibh euismod tincidunt ut laoreet dolore magna aliquam erat volutpat.",
            "postcode": "SW11 2NL",
            "info": "Ut wisi enim ad minim veniam, quis nostrud exerci tation ullamcorper suscipit lobortis nisl ut aliquip ex ea commodo consequat. Duis autem vel eum iriure dolor in hendrerit in vulputate velit esse molestie consequat, vel illum dolore eu feugiat nulla facilisis at vero eros et accumsan et iusto odio dignissim qui blandit praesent luptatum zzril delenit augue duis dolore te feugait nulla facilisi.",
            "images": [{
                "image": "amsterdam",
                "image_kitchen": "kitchen",
                "image_one": "bedroom",
                "image_two": "bedroomfive"
            }]
        }, {
            "id": 2,
            "desc": "At vero eos et accusam et justo duo dolores et ea rebum. Stet clita kasd gubergren, no sea takimata sanctus est Lorem ipsum dolor sit amet. Lorem ipsum dolor sit amet, consetetur sadipscing elitr,  sed diam nonumy eirmod tempor invidunt ut labore et dolore magna aliquyam erat, sed diam voluptua. At vero eos et accusam et justo duo dolores et ea rebum. Stet clita kasd gubergren, no sea takimata sanctus est Lorem ipsum dolor sit amet.",
            "postcode": "SW12 2SE",
            "info": "For more information please contact 008873662",
            "images": [{
                "image": "dutch",
                "image_kitchen": "kitchenone",
                "image_one": "bedroomfour",
                "image_two": "bedroomsix"
            }]
        }, {
            "id": 3,
            "desc": "Lorem ipsum dolor sit amet, consetetur sadipscing elitr, sed diam nonumy eirmod tempor invidunt ut labore et dolore magna aliquyam erat, sed diam voluptua. At vero eos et accusam et justo duo dolores et ea rebum. Stet clita kasd gubergren, no sea takimata sanctus est Lorem ipsum dolor sit amet. Lorem ipsum dolor sit amet, consetetur sadipscing elitr,  sed diam nonumy eirmod tempor invidunt ut labore et dolore magna aliquyam erat, sed diam voluptua",
            "postcode": "SW10 2RE",
            "info": "For more information please contact 008873662",
            "images": [{
                "image": "evy",
                "image_kitchen": "kitchentwo",
                "image_one": "bedroomthree",
                "image_two": "bedroomtwo"
            }]
        }, {
            "id": 4,
            "desc": "Lorem ipsum dolor sit amet, consetetur sadipscing elitr, sed diam nonumy eirmod tempor invidunt ut labore et dolore magna aliquyam erat, sed diam voluptua. At vero eos et accusam et justo duo dolores et ea rebum. Stet clita kasd gubergren, no sea takimata sanctus est Lorem ipsum dolor sit amet. Lorem ipsum dolor sit amet, consetetur sadipscing elitr,  sed diam nonumy eirmod tempor invidunt ut labore et dolore magna aliquyam erat, sed diam voluptua",
            "postcode": "SW14 2NO",
            "info": "For more information please contact 008873662",
            "images": [{
                "image": "mountain",
                "image_kitchen": "kitchenthree",
                "image_one": "kitchen",
                "image_two": "living-room"
            }]
        }, {
            "id": 5,
            "desc": "Lorem ipsum dolor sit amet, consetetur sadipscing elitr, sed diam nonumy eirmod tempor invidunt ut labore et dolore magna aliquyam erat, sed diam voluptua. At vero eos et accusam et justo duo dolores et ea rebum. Stet clita kasd gubergren, no sea takimata sanctus est Lorem ipsum dolor sit amet. Lorem ipsum dolor sit amet, consetetur sadipscing elitr,  sed diam nonumy eirmod tempor invidunt ut labore et dolore magna aliquyam erat, sed diam voluptua.",
            "postcode": "SW11 5TL",
            "info": "For more information please contact 008873662",
            "images": [{
                "image": "terracedlondon",
                "image_kitchen": "kitchenfour",
                "image_one": "bedroom",
                "image_two": "bedroomfive"
            }]
        }, {
            "id": 6,
            "desc": "Lorem ipsum dolor sit amet, consetetur sadipscing elitr, sed diam nonumy eirmod tempor invidunt ut labore et dolore magna aliquyam erat, sed diam voluptua. At vero eos et accusam et justo duo dolores et ea rebum. Stet clita kasd gubergren, no sea takimata sanctus est Lorem ipsum dolor sit amet. Lorem ipsum dolor sit amet, consetetur sadipscing elitr,  sed diam nonumy eirmod tempor invidunt ut labore et dolore magna aliquyam erat, sed diam voluptua.",
            "postcode": "SW16 2NL",
            "info": "For more information please contact 008873662",

            "images": [{
                "image": "villagetwo",
                "image_kitchen": "kitchenfive",
                "image_one": "bedroomfour",
                "image_two": "bedroomsix"
            }]
        }, {
            "id": 7,
            "desc": "At vero eos et accusam et justo duo dolores et ea rebum. Stet clita kasd gubergren, no sea takimata sanctus est Lorem ipsum dolor sit amet. Lorem ipsum dolor sit amet, consetetur sadipscing elitr,  sed diam nonumy eirmod tempor invidunt ut labore et dolore magna aliquyam erat, sed diam voluptua. At vero eos et accusam et justo duo dolores et ea rebum. Stet clita kasd gubergren, no sea takimata sanctus est Lorem ipsum dolor sit amet.",
            "postcode": "SW10 2RE",
            "info": "For more information please contact 008873662",
            "images": [{
                "image": "beachbungalow",
                "image_kitchen": "kitchensix",
                "image_one": "bedroomthree",
                "image_two": "bedroomtwo"
            }]
        }, {
            "id": 8,
            "desc": "Lorem ipsum dolor sit amet, consetetur sadipscing elitr, sed diam nonumy eirmod tempor invidunt ut labore et dolore magna aliquyam erat, sed diam voluptua. At vero eos et accusam et justo duo dolores et ea rebum. Stet clita kasd gubergren, no sea takimata sanctus est Lorem ipsum dolor sit amet. Lorem ipsum dolor sit amet, consetetur sadipscing elitr,  sed diam nonumy eirmod tempor invidunt ut labore et dolore magna aliquyam erat, sed diam voluptua.",
            "postcode": "SW10 2RE",
            "info": "For more information please contact 008873662",
            "images": [{
                "image": "bungalow",
                "image_kitchen": "kitchenseven",
                "image_one": "kitchen",
                "image_two": "living-room"
            }]
        }, {
            "id": 9,
            "desc": "Lorem ipsum dolor sit amet, consetetur sadipscing elitr, sed diam nonumy eirmod tempor invidunt ut labore et dolore magna aliquyam erat, sed diam voluptua. At vero eos et accusam et justo duo dolores et ea rebum. Stet clita kasd gubergren, no sea takimata sanctus est Lorem ipsum dolor sit amet. Lorem ipsum dolor sit amet, consetetur sadipscing elitr,  sed diam nonumy eirmod tempor invidunt ut labore et dolore magna aliquyam erat, sed diam voluptua.",
            "postcode": "SW22 EE",
            "info": "For more information please contact 008873662",
            "images": [{
                "image": "cottage",
                "image_kitchen": "kitcheneight",
                "image_one": "bedroom",
                "image_two": "bedroomfive"
            }]
        }, {
            "id": 10,
            "desc": "Duis autem vel eum iriure dolor in hendrerit in vulputate velit esse molestie consequat, vel illum dolore eu feugiat nulla facilisis at vero eros et accumsan et iusto odio dignissim qui blandit praesent luptatum zzril delenit augue duis dolore te feugait nulla facilisi. Lorem ipsum dolor sit amet, consectetuer adipiscing elit, sed diam nonummy nibh euismod tincidunt ut laoreet dolore magna aliquam erat volutpat.",
            "postcode": "SW10 2RE",
            "info": "For more information please contact 008873662",
            "images": [{
                "image": "cottagethree",
                "image_kitchen": "kitchennine",
                "image_one": "bedroomfour",
                "image_two": "bedroomsix"
            }]
        }, {
            "id": 11,
            "desc": "Nam liber tempor cum soluta nobis eleifend option congue nihil imperdiet doming id quod mazim placerat facer possim assum. Lorem ipsum dolor sit amet, consectetuer adipiscing elit, sed diam nonummy nibh euismod tincidunt ut laoreet dolore magna aliquam erat volutpat. Ut wisi enim ad minim veniam, quis nostrud exerci tation ullamcorper suscipit lobortis nisl ut aliquip ex ea commodo consequat.",
            "postcode": "SW10 2RE",
            "info": "For more information please contact 008873662",
            "images": [{
                "image": "cottagetwo",
                "image_kitchen": "kitchenten",
                "image_one": "bedroomthree",
                "image_two": "bedroomtwo"
            }]
        }, {
            "id": 12,
            "desc": "Lorem ipsum dolor sit amet, consetetur sadipscing elitr, sed diam nonumy eirmod tempor invidunt ut labore et dolore magna aliquyam erat, sed diam voluptua. At vero eos et accusam et justo duo dolores et ea rebum. Stet clita kasd gubergren, no sea takimata sanctus est Lorem ipsum dolor sit amet. Lorem ipsum dolor sit amet, consetetur sadipscing elitr,  sed diam nonumy eirmod tempor invidunt ut labore et dolore magna aliquyam erat, sed diam voluptua.",
            "postcode": "SW10 2RE",
            "info": "For more information please contact 008873662",
            "images": [{
                "image": "mountaintwo",
                "image_kitchen": "kitcheneleven",
                "image_one": "kitchenfifteen",
                "image_two": "living-room"
            }]
        },
        {
            "id": 13,
            "desc": "Lorem ipsum dolor sit amet, consetetur sadipscing elitr, sed diam nonumy eirmod tempor invidunt ut labore et dolore magna aliquyam erat, sed diam voluptua. At vero eos et accusam et justo duo dolores et ea rebum. Stet clita kasd gubergren, no sea takimata sanctus est Lorem ipsum dolor sit amet. Lorem ipsum dolor sit amet, consetetur sadipscing elitr,  sed diam nonumy eirmod tempor invidunt ut labore et dolore magna aliquyam erat, sed diam voluptua.",
            "postcode": "SP10 9RL",
            "info": "For more information please contact 008873662",
            "images": [{
                "image": "yellowhouse",
                "image_kitchen": "kitchenthirteen",
                "image_one": "bedroomone",
                "image_two": "bedroomfifteen"
            }]
        },
        {
            "id": 14,
            "desc": "Duis autem vel eum iriure dolor in hendrerit in vulputate velit esse molestie consequat, vel illum dolore eu feugiat nulla facilisis at vero eros et accumsan et iusto odio dignissim qui blandit praesent luptatum zzril delenit augue duis dolore te feugait nulla facilisi. Lorem ipsum dolor sit amet, consectetuer adipiscing elit, sed diam nonummy nibh euismod tincidunt ut laoreet dolore magna aliquam erat volutpat.",
            "postcode": "EC10 22RL",
            "info": "For more information please contact 008873662",
            "images": [{
                "image": "village",
                "image_kitchen": "kitchenfourteen",
                "image_one": "bedroomfourteen",
                "image_two": "kitchentwelve"
            }]
        }]
    }
 }